{
    "baseUrl": "http://www.dasa.com.br/",
    "integrationFolder": "cypress/integration",
    "screenshotOnRunFailure": true,
    "video": false,
    "viewportWidth": 1440,
    "viewportHeight": 900
}
